<svg width="60" height="60" viewBox="0 0 60 60" version="1.1" xmlns="http://www.w3.org/2000/svg" xmlns:xlink="http://www.w3.org/1999/xlink">
<title>ico_pariwisata</title>
<desc>Created using Figma</desc>
<g id="Canvas" transform="translate(17 -6444)">
<g id="ico_pariwisata">
<g id="Ellipse">
<use xlink:href="#path0_fill" transform="translate(-17 6444)" fill="#F1F7FF"/>
</g>
<g id="noun_103216">
<g id="Vector">
<use xlink:href="#path1_fill" transform="translate(-13 6450)" fill="#0052A8"/>
</g>
</g>
</g>
</g>
<defs>
<path id="path0_fill" d="M 60 30C 60 46.5685 46.5685 60 30 60C 13.4315 60 0 46.5685 0 30C 0 13.4315 13.4315 0 30 0C 46.5685 0 60 13.4315 60 30Z"/>
<path id="path1_fill" d="M 44.2844 7.69737L 35.6867 7.69737C 34.9211 3.31579 31.0933 0 26.5 0C 21.9067 0 18.1378 3.31579 17.3133 7.69737L 8.71556 7.69737C 3.94555 7.69737 0 11.6645 0 16.5197L 0 36.2368C 0 41.0329 3.94555 45 8.71556 45L 44.2256 45C 49.0544 45 53 41.0329 53 36.1776L 53 16.5197C 53 11.6645 49.0544 7.69737 44.2844 7.69737ZM 38.4544 11.0724L 38.4544 41.625L 14.5456 41.625L 14.5456 11.0724L 38.4544 11.0724ZM 26.5 3.375C 29.2089 3.375 31.5056 5.21053 32.2711 7.69737L 20.7289 7.69737C 21.4944 5.21053 23.7911 3.375 26.5 3.375ZM 3.35667 36.1776L 3.35667 16.5197C 3.35667 13.5 5.77111 11.0724 8.77444 11.0724L 11.0122 11.0724L 11.0122 41.625L 8.77444 41.625C 5.77111 41.625 3.35667 39.1974 3.35667 36.1776ZM 49.6433 36.1776C 49.6433 39.1974 47.2289 41.625 44.2256 41.625L 41.9878 41.625L 41.9878 11.0724L 44.2256 11.0724C 47.2289 11.0724 49.6433 13.5 49.6433 16.5197L 49.6433 36.1776Z"/>
</defs>
</svg>
