<svg width="60" height="60" viewBox="0 0 60 60" version="1.1" xmlns="http://www.w3.org/2000/svg" xmlns:xlink="http://www.w3.org/1999/xlink">
<title>ico_agro</title>
<desc>Created using Figma</desc>
<g id="Canvas" transform="translate(-512 -6444)">
<g id="ico_agro">
<g id="Ellipse">
<use xlink:href="#path0_fill" transform="translate(512 6444)" fill="#0052A8"/>
</g>
<g id="noun_1164503">
<g id="Vector">
<use xlink:href="#path1_fill" transform="translate(514 6444)" fill="#F1F7FF"/>
</g>
</g>
</g>
</g>
<defs>
<path id="path0_fill" d="M 60 29.5082C 60 45.8051 46.5685 59.0164 30 59.0164C 13.4315 59.0164 0 45.8051 0 29.5082C 0 13.2113 13.4315 0 30 0C 46.5685 0 60 13.2113 60 29.5082Z"/>
<path id="path1_fill" fill-rule="evenodd" d="M 17.8437 0.049673C 18.2641 0.117071 18.5794 0.342179 18.7895 0.723651C 23.787 9.57568 26.2861 17.6405 26.2861 24.9195C 26.2861 32.1762 23.7989 38.579 18.8246 44.1278C 20.0156 46.6667 21.592 48.9131 23.5537 50.8676C 24.7216 48.8005 26.2629 46.9579 28.1777 45.341L 28.8433 44.8018L 28.4229 44.667C 28.1196 44.5322 27.8975 44.3186 27.7573 44.0267C 27.5941 43.7342 27.5472 43.4431 27.6172 43.1506C 29.6259 34.6814 33.1289 29.4122 38.1264 27.3458C 42.9375 25.3461 48.9977 26.4022 56.3072 30.5135C 56.5643 30.6705 56.7626 30.8949 56.9027 31.1874C 57.0197 31.48 57.0309 31.7711 56.9377 32.0636C 54.789 39.2974 50.6091 43.0158 44.3968 43.218L 44.1866 43.1843C 38.7219 42.6451 34.0047 44.0382 30.0343 47.3629C 27.8856 49.1597 26.298 51.2497 25.2702 53.6309C 24.5696 55.3159 24.1142 57.0345 23.904 58.7868C 23.8809 59.1461 23.7288 59.4379 23.4486 59.663C 23.1915 59.8874 22.8881 60 22.5378 60L 22.3627 59.9663C 21.9892 59.9434 21.674 59.7863 21.4168 59.4945C 21.1835 59.202 21.0903 58.865 21.1366 58.4835C 21.3468 56.6638 21.744 55.0011 22.3276 53.4961C 19.5252 50.8905 17.3764 47.8576 15.882 44.3974C 13.5469 38.9611 12.8225 32.3898 13.7101 24.6836C 13.7571 24.3243 13.9322 24.0318 14.2356 23.8074C 14.5158 23.583 14.8542 23.4819 15.2515 23.5041C 15.6487 23.5486 15.964 23.7171 16.1973 24.0096C 16.4306 24.3021 16.5245 24.6276 16.4775 24.9869C 15.7769 31.2097 16.1854 36.6244 17.7036 41.2297C 21.6971 36.3097 23.6469 30.7271 23.5537 24.4814C 23.4605 18.2134 21.2998 11.1818 17.073 3.38586C 8.24537 10.1701 3.49313 18.0226 2.81564 26.9414C 2.58234 34.31 6.14354 39.23 13.4999 41.7008C 13.8734 41.8134 14.1424 42.0378 14.3056 42.3748C 14.4689 42.7118 14.4808 43.0602 14.3407 43.4195C 14.2237 43.7794 13.9904 44.0375 13.6401 44.1945C 13.2898 44.3516 12.9275 44.363 12.5541 44.2282C 3.9135 41.3301 -0.267039 35.511 0.0132046 26.7729C 0.783875 16.5507 6.35372 7.72156 16.7227 0.284891C 17.073 0.0159741 17.4465 -0.0628813 17.8437 0.049673ZM 32.2763 37.7924C 34.5883 35.7483 37.0173 34.4562 39.5626 33.9171L 39.8779 33.8834C 40.2051 33.8834 40.4853 33.973 40.7186 34.1523C 40.9758 34.3551 41.1509 34.6133 41.2441 34.9273C 41.3141 35.3088 41.2441 35.6458 41.0339 35.9383C 40.8237 36.2531 40.5323 36.4553 40.1581 36.5449C 36.9592 37.2189 33.8064 39.5434 30.6999 43.5206C 34.7165 41.0268 39.2824 40.0267 44.3968 40.5214C 48.9039 40.3643 52.0804 37.6347 53.9251 32.3332C 47.9461 29.0974 43.0538 28.2664 39.2473 29.8395C 36.3748 31.0075 34.0509 33.6582 32.2763 37.7924Z"/>
</defs>
</svg>
