{
  "project_info": {
    "project_number": "248298421419",
    "firebase_url": "https://controllerbumn.firebaseio.com",
    "project_id": "controllerbumn",
    "storage_bucket": "controllerbumn.appspot.com"
  },
  "client": [
    {
      "client_info": {
        "mobilesdk_app_id": "1:248298421419:android:b5a5c614284daa39",
        "android_client_info": {
          "package_name": "com.telkom.sobatbumncontroller"
        }
      },
      "oauth_client": [
        {
          "client_id": "248298421419-qmhfi9eh4d98lg7164r888qgguuo8148.apps.googleusercontent.com",
          "client_type": 3
        }
      ],
      "api_key": [
        {
          "current_key": "AIzaSyCI4Ht_VqAHRLTP37TKDHiEwlgO6J8h-us"
        }
      ],
      "services": {
        "analytics_service": {
          "status": 1
        },
        "appinvite_service": {
          "status": 1,
          "other_platform_oauth_client": []
        },
        "ads_service": {
          "status": 2
        }
      }
    }
  ],
  "configuration_version": "1"
}